<?xml version="1.0" encoding="UTF-8" standalone="no"?>
<!-- Created by diasvg.py -->
<svg width="9.531cm" height="18.363cm" viewBox="15.135 4.807 24.665 23.170"
 xmlns="http://www.w3.org/2000/svg"
 xmlns:xlink="http://www.w3.org/1999/xlink">
<path stroke="none" fill="#D1E1CE" stroke-width="0.100" d="M 17.858,19.750 L 22.092,19.750 C 22.676,19.750 23.150,20.298 23.150,20.975 C 23.150,21.652 22.676,22.200 22.092,22.200 L 17.858,22.200 C 17.274,22.200 16.800,21.652 16.800,20.975 C 16.800,20.298 17.274,19.750 17.858,19.750 "/>
<path stroke="#000000" fill="none" stroke-width="0.100"  d="M 17.858,19.750 L 22.092,19.750 C 22.676,19.750 23.150,20.298 23.150,20.975 C 23.150,21.652 22.676,22.200 22.092,22.200 L 17.858,22.200 C 17.274,22.200 16.800,21.652 16.800,20.975 C 16.800,20.298 17.274,19.750 17.858,19.750 "/>
<rect x="15.382" y="4.857" width="9.018" height="9.318" fill="#F3F493" stroke="none" stroke-width="0"/>
<rect x="15.382" y="4.857" width="9.018" height="9.318" fill="none" stroke="#000000" stroke-width="0.100" />
<rect x="15.382" y="4.857" width="9.018" height="9.318" fill="none" stroke="#000000" stroke-width="0.100" />
<text x="15.877" y="6.388"  fill="#000000" text-anchor="start" font-size="0.80" font-family="monospace" font-style="normal" font-weight="400">
GenericSimulator</text>
<text x="15.851" y="8.875"  fill="#000000" text-anchor="start" font-size="0.80" font-family="monospace" font-style="normal" font-weight="400">
- read configurations</text>
<text x="15.851" y="9.675"  fill="#000000" text-anchor="start" font-size="0.80" font-family="monospace" font-style="normal" font-weight="400">
- init nodes/objects</text>
<text x="15.851" y="10.475"  fill="#000000" text-anchor="start" font-size="0.80" font-family="monospace" font-style="normal" font-weight="400">
- run simulation:</text>
<text x="15.851" y="11.275"  fill="#000000" text-anchor="start" font-size="0.80" font-family="monospace" font-style="normal" font-weight="400">
    - call put/get</text>
<text x="15.851" y="12.075"  fill="#000000" text-anchor="start" font-size="0.80" font-family="monospace" font-style="normal" font-weight="400">
- export results</text>
<path stroke="none" fill="#D1E1CE" stroke-width="0.100" d="M 18.063,20.220 L 22.297,20.220 C 22.881,20.220 23.355,20.768 23.355,21.445 C 23.355,22.122 22.881,22.670 22.297,22.670 L 18.063,22.670 C 17.479,22.670 17.005,22.122 17.005,21.445 C 17.005,20.768 17.479,20.220 18.063,20.220 "/>
<path stroke="#000000" fill="none" stroke-width="0.100"  d="M 18.063,20.220 L 22.297,20.220 C 22.881,20.220 23.355,20.768 23.355,21.445 C 23.355,22.122 22.881,22.670 22.297,22.670 L 18.063,22.670 C 17.479,22.670 17.005,22.122 17.005,21.445 C 17.005,20.768 17.479,20.220 18.063,20.220 "/>
<path stroke="none" fill="#D1E1CE" stroke-width="0.100" d="M 18.313,20.670 L 22.547,20.670 C 23.131,20.670 23.605,21.218 23.605,21.895 C 23.605,22.572 23.131,23.120 22.547,23.120 L 18.313,23.120 C 17.729,23.120 17.255,22.572 17.255,21.895 C 17.255,21.218 17.729,20.670 18.313,20.670 "/>
<path stroke="#000000" fill="none" stroke-width="0.100"  d="M 18.313,20.670 L 22.547,20.670 C 23.131,20.670 23.605,21.218 23.605,21.895 C 23.605,22.572 23.131,23.120 22.547,23.120 L 18.313,23.120 C 17.729,23.120 17.255,22.572 17.255,21.895 C 17.255,21.218 17.729,20.670 18.313,20.670 "/>
<text x="19.530" y="22.045"  fill="#000000" text-anchor="start" font-size="0.80" font-family="monospace" font-style="normal" font-weight="400">
Nodes</text>
<line x1="20.139" y1="14.225" x2="20.164" y2="14.704" stroke="#000000" stroke-width="0.100" />
<polygon fill="#000000" stroke="none" stroke-width="0.100" points="19.914,14.717 20.190,15.203 20.414,14.690 "/>
<polygon fill="none" stroke="#000000" stroke-width="0.100"  points="19.914,14.717 20.190,15.203 20.414,14.690 "/>
<line x1="20.066" y1="18.700" x2="20.048" y2="19.150" stroke="#000000" stroke-width="0.100" />
<polygon fill="#000000" stroke="none" stroke-width="0.100" points="19.799,19.140 20.028,19.650 20.298,19.160 "/>
<polygon fill="none" stroke="#000000" stroke-width="0.100"  points="19.799,19.140 20.028,19.650 20.298,19.160 "/>
<path stroke="none" fill="#F6D65B" stroke-width="0.100" d="M 16.543,15.400 L 23.257,15.400 L 24.600,17.000 L 23.257,18.600 L 16.543,18.600 L 15.200,17.000 L 16.543,15.400 "/>
<path stroke="#000000" fill="none" stroke-width="0.100"  d="M 16.543,15.400 L 23.257,15.400 L 24.600,17.000 L 23.257,18.600 L 16.543,18.600 L 15.200,17.000 L 16.543,15.400 "/>
<text x="16.343" y="16.750"  fill="#000000" text-anchor="start" font-size="0.80" font-family="sans" font-style="normal" font-weight="400">
Dynamo/Grid Simulator</text>
<text x="16.343" y="17.550"  fill="#000000" text-anchor="start" font-size="0.80" font-family="sans" font-style="normal" font-weight="400">
Policy specific put/get</text>
</svg>